pi_0 = 
    0.5000
    0.2000
    0.3000

A = 
    0.8000    0.1000    0.1000
    0.3000    0.3000    0.4000
    0.3000    0.6000    0.1000

i = 1
    0.4500
    0.3300
    0.3000

i = 2
    0.4230
    0.3540
    0.3630

i = 3
    0.4101
    0.3783
    0.3756

i = 4
    0.4035
    0.3868
    0.3876

i = 5
    0.4002
    0.3921
    0.3919

i = 6
    0.3986
    0.3944
    0.3945

i = 7
    0.3977
    0.3957
    0.3957

i = 8
    0.3973
    0.3963
    0.3963

i = 9
    0.3971
    0.3966
    0.3966

i = 10
    0.3970
    0.3968
    0.3968

pi_0 = 
    0.5000
    0.2000
    0.3000

A = 
    0.8000    0.1000    0.1000
    0.3000    0.3000    0.4000
    0.3000    0.6000    0.1000

i = 1
    0.4500
    0.3300
    0.3000

i = 2
    0.4230
    0.3540
    0.3630

i = 3
    0.4101
    0.3783
    0.3756

i = 4
    0.4035
    0.3868
    0.3876

i = 5
    0.4002
    0.3921
    0.3919

i = 6
    0.3986
    0.3944
    0.3945

i = 7
    0.3977
    0.3957
    0.3957

i = 8
    0.3973
    0.3963
    0.3963

i = 9
    0.3971
    0.3966
    0.3966

i = 10
    0.3970
    0.3968
    0.3968

When N = 10, pi 10 =
    0.3970
    0.3968
    0.3968

pi_0 = 
    0.5000
    0.2000
    0.3000

A = 
    0.8000    0.1000    0.1000
    0.3000    0.3000    0.4000
    0.3000    0.6000    0.1000

i = 1
    0.4500
    0.3300
    0.3000

i = 2
    0.4230
    0.3540
    0.3630

i = 3
    0.4101
    0.3783
    0.3756

i = 4
    0.4035
    0.3868
    0.3876

i = 5
    0.4002
    0.3921
    0.3919

i = 6
    0.3986
    0.3944
    0.3945

i = 7
    0.3977
    0.3957
    0.3957

i = 8
    0.3973
    0.3963
    0.3963

i = 9
    0.3971
    0.3966
    0.3966

i = 10
    0.3970
    0.3968
    0.3968

When N = 10, pi_10 =
    0.3970
    0.3968
    0.3968

    0.4500
    0.3300
    0.3000

    0.4230
    0.3540
    0.3630

    0.4101
    0.3783
    0.3756

    0.4035
    0.3868
    0.3876

    0.4002
    0.3921
    0.3919

    0.3986
    0.3944
    0.3945

    0.3977
    0.3957
    0.3957

    0.3973
    0.3963
    0.3963

    0.3971
    0.3966
    0.3966

    0.3970
    0.3968
    0.3968

    0.3970
    0.3968
    0.3968

    0.3969
    0.3969
    0.3969

    0.3969
    0.3969
    0.3969

    0.3969
    0.3969
    0.3969

    0.3969
    0.3969
    0.3969

    0.3969
    0.3969
    0.3969

    0.3969
    0.3969
    0.3969

    0.3969
    0.3969
    0.3969

    0.3969
    0.3969
    0.3969

    0.3969
    0.3969
    0.3969

    0.3969
    0.3969
    0.3969

    0.3969
    0.3969
    0.3969

    0.3969
    0.3969
    0.3969

    0.3969
    0.3969
    0.3969

    0.3969
    0.3969
    0.3969

    0.3969
    0.3969
    0.3969

    0.3969
    0.3969
    0.3969

    0.3969
    0.3969
    0.3969

    0.3969
    0.3969
    0.3969

    0.3969
    0.3969
    0.3969

    0.3969
    0.3969
    0.3969

    0.3969
    0.3969
    0.3969

    0.3969
    0.3969
    0.3969

    0.3969
    0.3969
    0.3969

    0.3969
    0.3969
    0.3969

    0.3969
    0.3969
    0.3969

    0.3969
    0.3969
    0.3969

    0.3969
    0.3969
    0.3969

    0.3969
    0.3969
    0.3969

    0.3969
    0.3969
    0.3969

    0.3969
    0.3969
    0.3969

    0.3969
    0.3969
    0.3969

    0.3969
    0.3969
    0.3969

    0.3969
    0.3969
    0.3969

    0.3969
    0.3969
    0.3969

    0.3969
    0.3969
    0.3969

    0.3969
    0.3969
    0.3969

    0.3969
    0.3969
    0.3969

    0.3969
    0.3969
    0.3969

    0.3969
    0.3969
    0.3969

    0.3969
    0.3969
    0.3969

    0.3969
    0.3969
    0.3969

    0.3969
    0.3969
    0.3969

    0.3969
    0.3969
    0.3969

    0.3969
    0.3969
    0.3969

    0.3969
    0.3969
    0.3969

    0.3969
    0.3969
    0.3969

    0.3969
    0.3969
    0.3969

    0.3969
    0.3969
    0.3969

    0.3969
    0.3969
    0.3969

    0.3969
    0.3969
    0.3969

    0.3969
    0.3969
    0.3969

    0.3969
    0.3969
    0.3969

    0.3969
    0.3969
    0.3969

    0.3969
    0.3969
    0.3969

    0.3969
    0.3969
    0.3969

    0.3969
    0.3969
    0.3969

    0.3969
    0.3969
    0.3969

    0.3969
    0.3969
    0.3969

    0.3969
    0.3969
    0.3969

    0.3969
    0.3969
    0.3969

    0.3969
    0.3969
    0.3969

    0.3969
    0.3969
    0.3969

    0.3969
    0.3969
    0.3969

    0.3969
    0.3969
    0.3969

    0.3969
    0.3969
    0.3969

    0.3969
    0.3969
    0.3969

    0.3969
    0.3969
    0.3969

    0.3969
    0.3969
    0.3969

    0.3969
    0.3969
    0.3969

    0.3969
    0.3969
    0.3969

    0.3969
    0.3969
    0.3969

    0.3969
    0.3969
    0.3969

    0.3969
    0.3969
    0.3969

    0.3969
    0.3969
    0.3969

    0.3969
    0.3969
    0.3969

    0.3969
    0.3969
    0.3969

    0.3969
    0.3969
    0.3969

    0.3969
    0.3969
    0.3969

    0.3969
    0.3969
    0.3969

    0.3969
    0.3969
    0.3969

    0.3969
    0.3969
    0.3969

    0.3969
    0.3969
    0.3969

    0.3969
    0.3969
    0.3969

    0.3969
    0.3969
    0.3969

    0.3969
    0.3969
    0.3969

    0.3969
    0.3969
    0.3969

    0.3969
    0.3969
    0.3969

    0.3969
    0.3969
    0.3969

    0.3969
    0.3969
    0.3969

When N = 100, pi_100 =
    0.3969
    0.3969
    0.3969

pi_0 = 
    0.5000
    0.2000
    0.3000

A = 
    0.8000    0.1000    0.1000
    0.3000    0.3000    0.4000
    0.3000    0.6000    0.1000

i = 1
    0.4500
    0.3300
    0.3000

i = 2
    0.4230
    0.3540
    0.3630

i = 3
    0.4101
    0.3783
    0.3756

i = 4
    0.4035
    0.3868
    0.3876

i = 5
    0.4002
    0.3921
    0.3919

i = 6
    0.3986
    0.3944
    0.3945

i = 7
    0.3977
    0.3957
    0.3957

i = 8
    0.3973
    0.3963
    0.3963

i = 9
    0.3971
    0.3966
    0.3966

i = 10
    0.3970
    0.3968
    0.3968

When N = 10, pi_10 =
    0.3970
    0.3968
    0.3968

When N = 100, pi_100 =
    0.3969
    0.3969
    0.3969

pi_0 = 
    0.5000
    0.2000
    0.3000

A = 
    0.8000    0.1000    0.1000
    0.3000    0.3000    0.4000
    0.3000    0.6000    0.1000

i = 1
    0.4500
    0.3300
    0.3000

i = 2
    0.4230
    0.3540
    0.3630

i = 3
    0.4101
    0.3783
    0.3756

i = 4
    0.4035
    0.3868
    0.3876

i = 5
    0.4002
    0.3921
    0.3919

i = 6
    0.3986
    0.3944
    0.3945

i = 7
    0.3977
    0.3957
    0.3957

i = 8
    0.3973
    0.3963
    0.3963

i = 9
    0.3971
    0.3966
    0.3966

i = 10
    0.3970
    0.3968
    0.3968

When N = 10, pi_10 =
    0.3970
    0.3968
    0.3968

When N = 100, pi_100 =
    0.3969
    0.3969
    0.3969

When N = 10000, pi_10000=
    0.3969
    0.3969
    0.3969

pi_0 = 
       1/2     
       1/5     
       3/10    

A = 
       4/5            1/10           1/10    
       3/10           3/10           2/5     
       3/10           3/5            1/10    

i = 1
       9/20    
      33/100   
       3/10    

i = 2
     423/1000  
     177/500   
     363/1000  

i = 3
     739/1802  
    1304/3447  
     939/2500  

i = 4
    1279/3170  
    3260/8429  
     555/1432  

i = 5
     383/957   
     129/329   
     279/712   

i = 6
     499/1252  
     411/1042  
     991/2512  

i = 7
    1093/2748  
    1123/2838  
     696/1759  

i = 8
     149/375   
     665/1678  
    1139/2874  

i = 9
    1936/4875  
     211/532   
     328/827   

i = 10
     881/2219  
    1228/3095  
     565/1424  

When N = 10, pi_10 =
     881/2219  
    1228/3095  
     565/1424  

When N = 100, pi_100 =
     129/325   
     129/325   
     129/325   

When N = 10000, pi_10000=
     129/325   
     129/325   
     129/325   

pi_0 = 
       1/2     
       1/5     
       3/10    

A = 
       4/5            1/10           1/10    
       3/10           3/10           2/5     
       3/10           3/5            1/10    

i = 1
      11/20    
      29/100   
       4/25    

i = 2
      23/40    
     119/500   
     187/1000  

i = 3
      47/80    
    1131/4691  
     513/2993  

i = 4
      19/32    
     731/3125  
      71/412   

i = 5
     191/320   
     485/2082  
     493/2897  

i = 6
     383/640   
     765/3302  
    1223/7199  

i = 7
     767/1280  
    1399/6049  
     488/2879  

i = 8
     307/512   
     672/2909  
     239/1411  

i = 9
     613/1022  
     287/1243  
     182/1075  

i = 10
    1228/2047  
     587/2543  
     911/5382  

When N = 10, pi_10 =
    1228/2047  
     587/2543  
     911/5382  

When N = 100, pi_100 =
     129/325   
     129/325   
     129/325   

When N = 10000, pi_10000=
     129/325   
     129/325   
     129/325   

pi_0 = 
       1/2     
       1/5     
       3/10    

A = 
       4/5            1/10           1/10    
       3/10           3/10           2/5     
       3/10           3/5            1/10    

i = 1
      11/20    
      29/100   
       4/25    

i = 2
      23/40    
     119/500   
     187/1000  

i = 3
      47/80    
    1131/4691  
     513/2993  

i = 4
      19/32    
     731/3125  
      71/412   

i = 5
     191/320   
     485/2082  
     493/2897  

i = 6
     383/640   
     765/3302  
    1223/7199  

i = 7
     767/1280  
    1399/6049  
     488/2879  

i = 8
     307/512   
     672/2909  
     239/1411  

i = 9
     613/1022  
     287/1243  
     182/1075  

i = 10
    1228/2047  
     587/2543  
     911/5382  

When N = 10, pi_10 =
    1228/2047  
     587/2543  
     911/5382  

When N = 100, pi_100 =
       3/5     
       3/13    
      11/65    

When N = 10000, pi_10000=
       3/5     
       3/13    
      11/65    

-------------------------------------------------------------------
pi_0 = 
-------------------------------------------------------------------
       1/2     
       1/5     
       3/10    

-------------------------------------------------------------------
A = 
-------------------------------------------------------------------
       4/5            1/10           1/10    
       3/10           3/10           2/5     
       3/10           3/5            1/10    

i = 1
      11/20    
      29/100   
       4/25    

i = 2
      23/40    
     119/500   
     187/1000  

i = 3
      47/80    
    1131/4691  
     513/2993  

i = 4
      19/32    
     731/3125  
      71/412   

i = 5
     191/320   
     485/2082  
     493/2897  

i = 6
     383/640   
     765/3302  
    1223/7199  

i = 7
     767/1280  
    1399/6049  
     488/2879  

i = 8
     307/512   
     672/2909  
     239/1411  

i = 9
     613/1022  
     287/1243  
     182/1075  

i = 10
    1228/2047  
     587/2543  
     911/5382  

-------------------------------------------------------------------
When N = 10, pi_10 =
-------------------------------------------------------------------
    1228/2047  
     587/2543  
     911/5382  

-------------------------------------------------------------------
When N = 100, pi_100 =
-------------------------------------------------------------------
       3/5     
       3/13    
      11/65    

-------------------------------------------------------------------
When N = 10000, pi_10000=
-------------------------------------------------------------------
       3/5     
       3/13    
      11/65    

-------------------------------------------------------------------
pi_0
-------------------------------------------------------------------
       1/2     
       1/5     
       3/10    

-------------------------------------------------------------------
A
-------------------------------------------------------------------
       4/5            1/10           1/10    
       3/10           3/10           2/5     
       3/10           3/5            1/10    

i = 1
      11/20    
      29/100   
       4/25    

i = 2
      23/40    
     119/500   
     187/1000  

i = 3
      47/80    
    1131/4691  
     513/2993  

i = 4
      19/32    
     731/3125  
      71/412   

i = 5
     191/320   
     485/2082  
     493/2897  

i = 6
     383/640   
     765/3302  
    1223/7199  

i = 7
     767/1280  
    1399/6049  
     488/2879  

i = 8
     307/512   
     672/2909  
     239/1411  

i = 9
     613/1022  
     287/1243  
     182/1075  

i = 10
    1228/2047  
     587/2543  
     911/5382  

-------------------------------------------------------------------
Simulation history of size N = 10, when N = 10, pi_10 =
-------------------------------------------------------------------
    1228/2047  
     587/2543  
     911/5382  

-------------------------------------------------------------------
Simulation history of size N = 100, when N = 100, pi_100 =
-------------------------------------------------------------------
       3/5     
       3/13    
      11/65    

-------------------------------------------------------------------
Simulation history of size N = 10000, when N = 10000, pi_10000=
-------------------------------------------------------------------
       3/5     
       3/13    
      11/65    

-------------------------------------------------------------------
pi_0
-------------------------------------------------------------------
       1/2     
       1/5     
       3/10    

-------------------------------------------------------------------
A
-------------------------------------------------------------------
       4/5            1/10           1/10    
       3/10           3/10           2/5     
       3/10           3/5            1/10    

-------------------------------------------------------------------
Simulation history of size N = 10, when N = 10, pi_10 =
-------------------------------------------------------------------
i = 1
      11/20    
      29/100   
       4/25    

i = 2
      23/40    
     119/500   
     187/1000  

i = 3
      47/80    
    1131/4691  
     513/2993  

i = 4
      19/32    
     731/3125  
      71/412   

i = 5
     191/320   
     485/2082  
     493/2897  

i = 6
     383/640   
     765/3302  
    1223/7199  

i = 7
     767/1280  
    1399/6049  
     488/2879  

i = 8
     307/512   
     672/2909  
     239/1411  

i = 9
     613/1022  
     287/1243  
     182/1075  

i = 10
    1228/2047  
     587/2543  
     911/5382  

-------------------------------------------------------------------
Simulation history of size N = 10, when N = 10, pi_10 =
-------------------------------------------------------------------
    1228/2047  
     587/2543  
     911/5382  

-------------------------------------------------------------------
Simulation of size N = 100, when N = 100, pi_100 =
-------------------------------------------------------------------
       3/5     
       3/13    
      11/65    

-------------------------------------------------------------------
Simulation of size N = 10000, when N = 10000, pi_10000=
-------------------------------------------------------------------
       3/5     
       3/13    
      11/65    

-------------------------------------------------------------------
pi_0
-------------------------------------------------------------------
       1/2     
       1/5     
       3/10    

-------------------------------------------------------------------
A
-------------------------------------------------------------------
       4/5            1/10           1/10    
       3/10           3/10           2/5     
       3/10           3/5            1/10    

-------------------------------------------------------------------
Simulation history of size N = 10
-------------------------------------------------------------------
i = 1
      11/20    
      29/100   
       4/25    

i = 2
      23/40    
     119/500   
     187/1000  

i = 3
      47/80    
    1131/4691  
     513/2993  

i = 4
      19/32    
     731/3125  
      71/412   

i = 5
     191/320   
     485/2082  
     493/2897  

i = 6
     383/640   
     765/3302  
    1223/7199  

i = 7
     767/1280  
    1399/6049  
     488/2879  

i = 8
     307/512   
     672/2909  
     239/1411  

i = 9
     613/1022  
     287/1243  
     182/1075  

i = 10
    1228/2047  
     587/2543  
     911/5382  

-------------------------------------------------------------------
Simulation of size N = 10, when N = 10, pi_10 =
-------------------------------------------------------------------
    1228/2047  
     587/2543  
     911/5382  

-------------------------------------------------------------------
Simulation of size N = 100, when N = 100, pi_100 =
-------------------------------------------------------------------
       3/5     
       3/13    
      11/65    

-------------------------------------------------------------------
Simulation of size N = 10000, when N = 10000, pi_10000=
-------------------------------------------------------------------
       3/5     
       3/13    
      11/65    

-------------------------------------------------------------------
pi_0
-------------------------------------------------------------------
       1/2     
       1/5     
       3/10    

-------------------------------------------------------------------
A
-------------------------------------------------------------------
       4/5            1/10           1/10    
       3/10           3/10           2/5     
       3/10           3/5            1/10    

-------------------------------------------------------------------
Simulation history of size N = 10
-------------------------------------------------------------------
i = 1
      11/20    
      29/100   
       4/25    

i = 2
      23/40    
     119/500   
     187/1000  

i = 3
      47/80    
    1131/4691  
     513/2993  

i = 4
      19/32    
     731/3125  
      71/412   

i = 5
     191/320   
     485/2082  
     493/2897  

i = 6
     383/640   
     765/3302  
    1223/7199  

i = 7
     767/1280  
    1399/6049  
     488/2879  

i = 8
     307/512   
     672/2909  
     239/1411  

i = 9
     613/1022  
     287/1243  
     182/1075  

i = 10
    1228/2047  
     587/2543  
     911/5382  

-------------------------------------------------------------------
Simulation of size N = 10, when N = 10, pi_10 =
-------------------------------------------------------------------
    1228/2047  
     587/2543  
     911/5382  

-------------------------------------------------------------------
Simulation of size N = 100, when N = 100, pi_100 =
-------------------------------------------------------------------
       3/5     
       3/13    
      11/65    

-------------------------------------------------------------------
Simulation of size N = 10000, when N = 10000, pi_10000=
-------------------------------------------------------------------
       3/5     
       3/13    
      11/65    

